bcd2led7seg/bcd2led7seg.sim/sim_1/behav/xsim/pwm_test.vcd
$date
   Fri Aug 15 15:59:21 2025
$end
$version
  2019.2
$end
$timescale
  1ps
$end
$scope module seven_seg_controller_pwm_tb $end
$var reg 1 ! clk $end
$var reg 1 " rst $end
$var reg 1 # rate_sel_2hz $end
$var reg 1 $ btn_brightness_up $end
$var reg 1 % btn_brightness_down $end
$var reg 4 & bcd0 [3:0] $end
$var reg 4 ' bcd1 [3:0] $end
$var reg 4 ( bcd2 [3:0] $end
$var reg 4 ) bcd3 [3:0] $end
$var reg 4 * bcd4 [3:0] $end
$var wire 5 + anode [4:0] $end
$var wire 3 , bcd_sel [2:0] $end
$var wire 4 - bcd_out [3:0] $end
$var wire 2 . brightness_level [1:0] $end
$var wire 8 / brightness_duty [7:0] $end
$var wire 1 0 pwm_out $end
$scope module uut $end
$var wire 1 1 clk $end
$var wire 1 2 rst $end
$var wire 1 3 rate_sel_2hz $end
$var wire 1 4 btn_brightness_up $end
$var wire 1 5 btn_brightness_down $end
$var wire 4 6 bcd0 [3:0] $end
$var wire 4 7 bcd1 [3:0] $end
$var wire 4 8 bcd2 [3:0] $end
$var wire 4 9 bcd3 [3:0] $end
$var wire 4 : bcd4 [3:0] $end
$var reg 5 ; anode [4:0] $end
$var reg 3 < bcd_sel [2:0] $end
$var reg 4 = bcd_out [3:0] $end
$var reg 24 > refresh_counter [23:0] $end
$var reg 3 ? digit_index [2:0] $end
$var reg 17 @ pwm_counter [16:0] $end
$var reg 8 A brightness_duty [7:0] $end
$var reg 2 B brightness_level [1:0] $end
$var wire 1 C pwm_out $end
$var wire 24 D count_max_cur [23:0] $end
$var wire 1 E tick $end
$var wire 3 F next_idx [2:0] $end
$var wire 8 G pwm_compare [7:0] $end
$var reg 5 H anode_select [4:0] $end
$var parameter 0 I CLK_FREQ $end
$var parameter 0 J ACTIVE_DIGITS $end
$var parameter 0 K FAST_HZ $end
$var parameter 0 L SLOW_HZ $end
$var parameter 0 M PWM_BITS $end
$var parameter 0 N PWM_FREQ $end
$var parameter 0 O PWM_COUNT_MAX $end
$var parameter 0 P BRIGHTNESS_LEVELS $end
$var parameter 0 Q COUNT_MAX_FAST $end
$var parameter 0 R COUNT_MAX_SLOW $end
$var parameter 0 S CNTR_BITS $end
$upscope $end
$scope task monitor_pwm $end
$var integer 32 T duration_us $end
$var integer 32 U pwm_high_count $end
$var integer 32 V total_count $end
$var integer 32 W duty_percentage $end
$upscope $end
$upscope $end
$enddefinitions $end
#0
$dumpvars
0!
1"
0#
0$
0%
b1 &
b10 '
b11 (
b100 )
b101 *
b11110 +
bx ,
bx -
b11 .
b11111111 /
10
01
12
03
04
05
b1 6
b10 7
b11 8
b100 9
b101 :
b11110 ;
bx <
bx =
b0 >
b0 ?
b0 @
b11111111 A
b11 B
1C
b10100010110000101 D
0E
b1 F
b0 G
b11110 H
b101111101011110000100000000 I
b101 J
b11110000 K
b10 L
b1000 M
b1111101000 N
b11000011010100000 O
b100 P
b10100010110000101 Q
b100110001001011010000000 R
b11000 S
bx T
bx U
bx V
bx W
$end
#5000
1!
b0 ,
b1 -
11
b0 <
b1 =
b0 >
b0 ?
b0 @
b11111111 A
b11 B
#10000
0!
01
#15000
1!
11
b0 >
b0 ?
b0 @
b11111111 A
b11 B
#20000
0!
01
#25000
1!
11
b0 >
b0 ?
b0 @
b11111111 A
b11 B
#30000
0!
01
#35000
1!
11
b0 >
b0 ?
b0 @
b11111111 A
b11 B
#40000
0!
01
#45000
1!
11
b0 >
b0 ?
b0 @
b11111111 A
b11 B
#50000
0!
01
#55000
1!
11
b0 >
b0 ?
b0 @
b11111111 A
b11 B
#60000
0!
01
#65000
1!
11
b0 >
b0 ?
b0 @
b11111111 A
b11 B
#70000
0!
01
#75000
1!
11
b0 >
b0 ?
b0 @
b11111111 A
b11 B
#80000
0!
01
#85000
1!
11
b0 >
b0 ?
b0 @
b11111111 A
b11 B
#90000
0!
01
#95000
1!
11
b0 >
b0 ?
b0 @
b11111111 A
b11 B
#100000
0!
0"
01
02
#105000
1!
11
b1 >
b1 @
b11111111 A
#110000
0!
01
#115000
1!
11
b10 >
b10 @
b11111111 A
#120000
0!
01
#125000
1!
11
b11 >
b11 @
b11111111 A
#130000
0!
01
#135000
1!
11
b100 >
b100 @
b11111111 A
#140000
0!
01
#145000
1!
11
b101 >
b101 @
b11111111 A
#150000
0!
01
#155000
1!
11
b110 >
b110 @
b11111111 A
#160000
0!
01
#165000
1!
11
b111 >
b111 @
b11111111 A
#170000
0!
01
#175000
1!
11
b1000 >
b1000 @
b11111111 A
#180000
0!
01
#185000
1!
11
b1001 >
b1001 @
b11111111 A
#190000
0!
01
#195000
1!
11
b1010 >
b1010 @
b11111111 A
#200000
0!
01
b1010 T
b0 U
b0 V
#205000
1!
11
b1011 >
b1011 @
b11111111 A
b1 U
b1 V
#210000
0!
01
#215000
1!
11
b1100 >
b1100 @
b11111111 A
b10 U
b10 V
#220000
0!
01
#225000
1!
11
b1101 >
b1101 @
b11111111 A
b11 U
b11 V
#230000
0!
01
#235000
1!
11
b1110 >
b1110 @
b11111111 A
b100 U
b100 V
#240000
0!
01
#245000
1!
11
b1111 >
b1111 @
b11111111 A
b101 U
b101 V
#250000
0!
01
#255000
1!
11
b10000 >
b10000 @
b11111111 A
b110 U
b110 V
#260000
0!
01
#265000
1!
11
b10001 >
b10001 @
b11111111 A
b111 U
b111 V
#270000
0!
01
#275000
1!
11
b10010 >
b10010 @
b11111111 A
b1000 U
b1000 V
#280000
0!
01
#285000
1!
11
b10011 >
b10011 @
b11111111 A
b1001 U
b1001 V
#290000
0!
01
#295000
1!
11
b10100 >
b10100 @
b11111111 A
b1010 U
b1010 V
#300000
0!
01
#305000
1!
11
b10101 >
b10101 @
b11111111 A
b1011 U
b1011 V
#310000
0!
01
#315000
1!
11
b10110 >
b10110 @
b11111111 A
b1100 U
b1100 V
#320000
0!
01
#325000
1!
11
b10111 >
b10111 @
b11111111 A
b1101 U
b1101 V
#330000
0!
01
#335000
1!
11
b11000 >
b11000 @
b11111111 A
b1110 U
b1110 V
#340000
0!
01
#345000
1!
11
b11001 >
b11001 @
b11111111 A
b1111 U
b1111 V
#350000
0!
01
#355000
1!
11
b11010 >
b11010 @
b11111111 A
b10000 U
b10000 V
#360000
0!
01
#365000
1!
11
b11011 >
b11011 @
b11111111 A
b10001 U
b10001 V
#370000
0!
01
#375000
1!
11
b11100 >
b11100 @
b11111111 A
b10010 U
b10010 V
#380000
0!
01
#385000
1!
11
b11101 >
b11101 @
b11111111 A
b10011 U
b10011 V
#390000
0!
01
#395000
1!
11
b11110 >
b11110 @
b11111111 A
b10100 U
b10100 V
#400000
0!
01
#405000
1!
11
b11111 >
b11111 @
b11111111 A
b10101 U
b10101 V
#410000
0!
01
#415000
1!
11
b100000 >
b100000 @
b11111111 A
b10110 U
b10110 V
#420000
0!
01
#425000
1!
11
b100001 >
b100001 @
b11111111 A
b10111 U
b10111 V
#430000
0!
01
#435000
1!
11
b100010 >
b100010 @
b11111111 A
b11000 U
b11000 V
#440000
0!
01
#445000
1!
11
b100011 >
b100011 @
b11111111 A
b11001 U
b11001 V
#450000
0!
01
#455000
1!
11
b100100 >
b100100 @
b11111111 A
b11010 U
b11010 V
#460000
0!
01
#465000
1!
11
b100101 >
b100101 @
b11111111 A
b11011 U
b11011 V
#470000
0!
01
#475000
1!
11
b100110 >
b100110 @
b11111111 A
b11100 U
b11100 V
#480000
0!
01
#485000
1!
11
b100111 >
b100111 @
b11111111 A
b11101 U
b11101 V
#490000
0!
01
#495000
1!
11
b101000 >
b101000 @
b11111111 A
b11110 U
b11110 V
#500000
0!
01
#505000
1!
11
b101001 >
b101001 @
b11111111 A
b11111 U
b11111 V
#510000
0!
01
#515000
1!
11
b101010 >
b101010 @
b11111111 A
b100000 U
b100000 V
#520000
0!
01
#525000
1!
11
b101011 >
b101011 @
b11111111 A
b100001 U
b100001 V
#530000
0!
01
#535000
1!
11
b101100 >
b101100 @
b11111111 A
b100010 U
b100010 V
#540000
0!
01
#545000
1!
11
b101101 >
b101101 @
b11111111 A
b100011 U
b100011 V
#550000
0!
01
#555000
1!
11
b101110 >
b101110 @
b11111111 A
b100100 U
b100100 V
#560000
0!
01
#565000
1!
11
b101111 >
b101111 @
b11111111 A
b100101 U
b100101 V
#570000
0!
01
#575000
1!
11
b110000 >
b110000 @
b11111111 A
b100110 U
b100110 V
#580000
0!
01
#585000
1!
11
b110001 >
b110001 @
b11111111 A
b100111 U
b100111 V
#590000
0!
01
#595000
1!
11
b110010 >
b110010 @
b11111111 A
b101000 U
b101000 V
#600000
0!
01
#605000
1!
11
b110011 >
b110011 @
b11111111 A
b101001 U
b101001 V
#610000
0!
01
#615000
1!
11
b110100 >
b110100 @
b11111111 A
b101010 U
b101010 V
#620000
0!
01
#625000
1!
11
b110101 >
b110101 @
b11111111 A
b101011 U
b101011 V
#630000
0!
01
#635000
1!
11
b110110 >
b110110 @
b11111111 A
b101100 U
b101100 V
#640000
0!
01
#645000
1!
11
b110111 >
b110111 @
b11111111 A
b101101 U
b101101 V
#650000
0!
01
#655000
1!
11
b111000 >
b111000 @
b11111111 A
b101110 U
b101110 V
#660000
0!
01
#665000
1!
11
b111001 >
b111001 @
b11111111 A
b101111 U
b101111 V
#670000
0!
01
#675000
1!
11
b111010 >
b111010 @
b11111111 A
b110000 U
b110000 V
#680000
0!
01
#685000
1!
11
b111011 >
b111011 @
b11111111 A
b110001 U
b110001 V
#690000
0!
01
#695000
1!
11
b111100 >
b111100 @
b11111111 A
b110010 U
b110010 V
#700000
0!
01
#705000
1!
11
b111101 >
b111101 @
b11111111 A
b110011 U
b110011 V
#710000
0!
01
#715000
1!
11
b111110 >
b111110 @
b11111111 A
b110100 U
b110100 V
#720000
0!
01
#725000
1!
11
b111111 >
b111111 @
b11111111 A
b110101 U
b110101 V
#730000
0!
01
#735000
1!
11
b1000000 >
b1000000 @
b11111111 A
b110110 U
b110110 V
#740000
0!
01
#745000
1!
11
b1000001 >
b1000001 @
b11111111 A
b110111 U
b110111 V
#750000
0!
01
#755000
1!
11
b1000010 >
b1000010 @
b11111111 A
b111000 U
b111000 V
#760000
0!
01
#765000
1!
11
b1000011 >
b1000011 @
b11111111 A
b111001 U
b111001 V
#770000
0!
01
#775000
1!
11
b1000100 >
b1000100 @
b11111111 A
b111010 U
b111010 V
#780000
0!
01
#785000
1!
11
b1000101 >
b1000101 @
b11111111 A
b111011 U
b111011 V
#790000
0!
01
#795000
1!
11
b1000110 >
b1000110 @
b11111111 A
b111100 U
b111100 V
#800000
0!
01
#805000
1!
11
b1000111 >
b1000111 @
b11111111 A
b111101 U
b111101 V
#810000
0!
01
#815000
1!
11
b1001000 >
b1001000 @
b11111111 A
b111110 U
b111110 V
#820000
0!
01
#825000
1!
11
b1001001 >
b1001001 @
b11111111 A
b111111 U
b111111 V
#830000
0!
01
#835000
1!
11
b1001010 >
b1001010 @
b11111111 A
b1000000 U
b1000000 V
#840000
0!
01
#845000
1!
11
b1001011 >
b1001011 @
b11111111 A
b1000001 U
b1000001 V
#850000
0!
01
#855000
1!
11
b1001100 >
b1001100 @
b11111111 A
b1000010 U
b1000010 V
#860000
0!
01
#865000
1!
11
b1001101 >
b1001101 @
b11111111 A
b1000011 U
b1000011 V
#870000
0!
01
#875000
1!
11
b1001110 >
b1001110 @
b11111111 A
b1000100 U
b1000100 V
#880000
0!
01
#885000
1!
11
b1001111 >
b1001111 @
b11111111 A
b1000101 U
b1000101 V
#890000
0!
01
#895000
1!
11
b1010000 >
b1010000 @
b11111111 A
b1000110 U
b1000110 V
#900000
0!
01
#905000
1!
11
b1010001 >
b1010001 @
b11111111 A
b1000111 U
b1000111 V
#910000
0!
01
#915000
1!
11
b1010010 >
b1010010 @
b11111111 A
b1001000 U
b1001000 V
#920000
0!
01
#925000
1!
11
b1010011 >
b1010011 @
b11111111 A
b1001001 U
b1001001 V
#930000
0!
01
#935000
1!
11
b1010100 >
b1010100 @
b11111111 A
b1001010 U
b1001010 V
#940000
0!
01
#945000
1!
11
b1010101 >
b1010101 @
b11111111 A
b1001011 U
b1001011 V
#950000
0!
01
#955000
1!
11
b1010110 >
b1010110 @
b11111111 A
b1001100 U
b1001100 V
#960000
0!
01
#965000
1!
11
b1010111 >
b1010111 @
b11111111 A
b1001101 U
b1001101 V
#970000
0!
01
#975000
1!
11
b1011000 >
b1011000 @
b11111111 A
b1001110 U
b1001110 V
#980000
0!
01
#985000
1!
11
b1011001 >
b1011001 @
b11111111 A
b1001111 U
b1001111 V
#990000
0!
01
#995000
1!
11
b1011010 >
b1011010 @
b11111111 A
b1010000 U
b1010000 V
#1000000
0!
01
#1005000
1!
11
b1011011 >
b1011011 @
b11111111 A
b1010001 U
b1010001 V
#1010000
0!
01
#1015000
1!
11
b1011100 >
b1011100 @
b11111111 A
b1010010 U
b1010010 V
#1020000
0!
01
#1025000
1!
11
b1011101 >
b1011101 @
b11111111 A
b1010011 U
b1010011 V
#1030000
0!
01
#1035000
1!
11
b1011110 >
b1011110 @
b11111111 A
b1010100 U
b1010100 V
#1040000
0!
01
#1045000
1!
11
b1011111 >
b1011111 @
b11111111 A
b1010101 U
b1010101 V
#1050000
0!
01
#1055000
1!
11
b1100000 >
b1100000 @
b11111111 A
b1010110 U
b1010110 V
#1060000
0!
01
#1065000
1!
11
b1100001 >
b1100001 @
b11111111 A
b1010111 U
b1010111 V
#1070000
0!
01
#1075000
1!
11
b1100010 >
b1100010 @
b11111111 A
b1011000 U
b1011000 V
#1080000
0!
01
#1085000
1!
11
b1100011 >
b1100011 @
b11111111 A
b1011001 U
b1011001 V
#1090000
0!
01
#1095000
1!
11
b1100100 >
b1100100 @
b11111111 A
b1011010 U
b1011010 V
#1100000
0!
01
#1105000
1!
11
b1100101 >
b1100101 @
b11111111 A
b1011011 U
b1011011 V
#1110000
0!
01
#1115000
1!
11
b1100110 >
b1100110 @
b11111111 A
b1011100 U
b1011100 V
#1120000
0!
01
#1125000
1!
11
b1100111 >
b1100111 @
b11111111 A
b1011101 U
b1011101 V
#1130000
0!
01
#1135000
1!
11
b1101000 >
b1101000 @
b11111111 A
b1011110 U
b1011110 V
#1140000
0!
01
#1145000
1!
11
b1101001 >
b1101001 @
b11111111 A
b1011111 U
b1011111 V
#1150000
0!
01
#1155000
1!
11
b1101010 >
b1101010 @
b11111111 A
b1100000 U
b1100000 V
#1160000
0!
01
#1165000
1!
11
b1101011 >
b1101011 @
b11111111 A
b1100001 U
b1100001 V
#1170000
0!
01
#1175000
1!
11
b1101100 >
b1101100 @
b11111111 A
b1100010 U
b1100010 V
#1180000
0!
01
#1185000
1!
11
b1101101 >
b1101101 @
b11111111 A
b1100011 U
b1100011 V
#1190000
0!
01
#1195000
1!
11
b1101110 >
b1101110 @
b11111111 A
b1100100 U
b1100100 V
#1200000
0!
01
#1205000
1!
11
b1101111 >
b1101111 @
b11111111 A
b1100101 U
b1100101 V
#1210000
0!
01
#1215000
1!
11
b1110000 >
b1110000 @
b11111111 A
b1100110 U
b1100110 V
#1220000
0!
01
#1225000
1!
11
b1110001 >
b1110001 @
b11111111 A
b1100111 U
b1100111 V
#1230000
0!
01
#1235000
1!
11
b1110010 >
b1110010 @
b11111111 A
b1101000 U
b1101000 V
#1240000
0!
01
#1245000
1!
11
b1110011 >
b1110011 @
b11111111 A
b1101001 U
b1101001 V
#1250000
0!
01
#1255000
1!
11
b1110100 >
b1110100 @
b11111111 A
b1101010 U
b1101010 V
#1260000
0!
01
#1265000
1!
11
b1110101 >
b1110101 @
b11111111 A
b1101011 U
b1101011 V
#1270000
0!
01
#1275000
1!
11
b1110110 >
b1110110 @
b11111111 A
b1101100 U
b1101100 V
#1280000
0!
01
#1285000
1!
11
b1110111 >
b1110111 @
b11111111 A
b1101101 U
b1101101 V
#1290000
0!
01
#1295000
1!
11
b1111000 >
b1111000 @
b11111111 A
b1101110 U
b1101110 V
#1300000
0!
01
#1305000
1!
11
b1111001 >
b1111001 @
b11111111 A
b1101111 U
b1101111 V
#1310000
0!
01
#1315000
1!
11
b1111010 >
b1111010 @
b11111111 A
b1110000 U
b1110000 V
#1320000
0!
01
#1325000
1!
11
b1111011 >
b1111011 @
b11111111 A
b1110001 U
b1110001 V
#1330000
0!
01
#1335000
1!
11
b1111100 >
b1111100 @
b11111111 A
b1110010 U
b1110010 V
#1340000
0!
01
#1345000
1!
11
b1111101 >
b1111101 @
b11111111 A
b1110011 U
b1110011 V
#1350000
0!
01
#1355000
1!
11
b1111110 >
b1111110 @
b11111111 A
b1110100 U
b1110100 V
#1360000
0!
01
#1365000
1!
11
b1111111 >
b1111111 @
b11111111 A
b1110101 U
b1110101 V
#1370000
0!
01
#1375000
1!
11
b10000000 >
b10000000 @
b11111111 A
b1110110 U
b1110110 V
#1380000
0!
01
#1385000
1!
11
b10000001 >
b10000001 @
b11111111 A
b1110111 U
b1110111 V
#1390000
0!
01
#1395000
1!
11
b10000010 >
b10000010 @
b11111111 A
b1111000 U
b1111000 V
#1400000
0!
01
#1405000
1!
11
b10000011 >
b10000011 @
b11111111 A
b1111001 U
b1111001 V
#1410000
0!
01
#1415000
1!
11
b10000100 >
b10000100 @
b11111111 A
b1111010 U
b1111010 V
#1420000
0!
01
#1425000
1!
11
b10000101 >
b10000101 @
b11111111 A
b1111011 U
b1111011 V
#1430000
0!
01
#1435000
1!
11
b10000110 >
b10000110 @
b11111111 A
b1111100 U
b1111100 V
#1440000
0!
01
#1445000
1!
11
b10000111 >
b10000111 @
b11111111 A
b1111101 U
b1111101 V
#1450000
0!
01
#1455000
1!
11
b10001000 >
b10001000 @
b11111111 A
b1111110 U
b1111110 V
#1460000
0!
01
#1465000
1!
11
b10001001 >
b10001001 @
b11111111 A
b1111111 U
b1111111 V
#1470000
0!
01
#1475000
1!
11
b10001010 >
b10001010 @
b11111111 A
b10000000 U
b10000000 V
#1480000
0!
01
#1485000
1!
11
b10001011 >
b10001011 @
b11111111 A
b10000001 U
b10000001 V
#1490000
0!
01
#1495000
1!
11
b10001100 >
b10001100 @
b11111111 A
b10000010 U
b10000010 V
#1500000
0!
01
#1505000
1!
11
b10001101 >
b10001101 @
b11111111 A
b10000011 U
b10000011 V
#1510000
0!
01
#1515000
1!
11
b10001110 >
b10001110 @
b11111111 A
b10000100 U
b10000100 V
#1520000
0!
01
#1525000
1!
11
b10001111 >
b10001111 @
b11111111 A
b10000101 U
b10000101 V
#1530000
0!
01
#1535000
1!
11
b10010000 >
b10010000 @
b11111111 A
b10000110 U
b10000110 V
#1540000
0!
01
#1545000
1!
11
b10010001 >
b10010001 @
b11111111 A
b10000111 U
b10000111 V
#1550000
0!
01
#1555000
1!
11
b10010010 >
b10010010 @
b11111111 A
b10001000 U
b10001000 V
#1560000
0!
01
#1565000
1!
11
b10010011 >
b10010011 @
b11111111 A
b10001001 U
b10001001 V
#1570000
0!
01
#1575000
1!
11
b10010100 >
b10010100 @
b11111111 A
b10001010 U
b10001010 V
#1580000
0!
01
#1585000
1!
11
b10010101 >
b10010101 @
b11111111 A
b10001011 U
b10001011 V
#1590000
0!
01
#1595000
1!
11
b10010110 >
b10010110 @
b11111111 A
b10001100 U
b10001100 V
#1600000
0!
01
#1605000
1!
11
b10010111 >
b10010111 @
b11111111 A
b10001101 U
b10001101 V
#1610000
0!
01
#1615000
1!
11
b10011000 >
b10011000 @
b11111111 A
b10001110 U
b10001110 V
#1620000
0!
01
#1625000
1!
11
b10011001 >
b10011001 @
b11111111 A
b10001111 U
b10001111 V
#1630000
0!
01
#1635000
1!
11
b10011010 >
b10011010 @
b11111111 A
b10010000 U
b10010000 V
#1640000
0!
01
#1645000
1!
11
b10011011 >
b10011011 @
b11111111 A
b10010001 U
b10010001 V
#1650000
0!
01
#1655000
1!
11
b10011100 >
b10011100 @
b11111111 A
b10010010 U
b10010010 V
#1660000
0!
01
#1665000
1!
11
b10011101 >
b10011101 @
b11111111 A
b10010011 U
b10010011 V
#1670000
0!
01
#1675000
1!
11
b10011110 >
b10011110 @
b11111111 A
b10010100 U
b10010100 V
#1680000
0!
01
#1685000
1!
11
b10011111 >
b10011111 @
b11111111 A
b10010101 U
b10010101 V
#1690000
0!
01
#1695000
1!
11
b10100000 >
b10100000 @
b11111111 A
b10010110 U
b10010110 V
#1700000
0!
01
#1705000
1!
11
b10100001 >
b10100001 @
b11111111 A
b10010111 U
b10010111 V
#1710000
0!
01
#1715000
1!
11
b10100010 >
b10100010 @
b11111111 A
b10011000 U
b10011000 V
#1720000
0!
01
#1725000
1!
11
b10100011 >
b10100011 @
b11111111 A
b10011001 U
b10011001 V
#1730000
0!
01
#1735000
1!
11
b10100100 >
b10100100 @
b11111111 A
b10011010 U
b10011010 V
#1740000
0!
01
#1745000
1!
11
b10100101 >
b10100101 @
b11111111 A
b10011011 U
b10011011 V
#1750000
0!
01
#1755000
1!
11
b10100110 >
b10100110 @
b11111111 A
b10011100 U
b10011100 V
#1760000
0!
01
#1765000
1!
11
b10100111 >
b10100111 @
b11111111 A
b10011101 U
b10011101 V
#1770000
0!
01
#1775000
1!
11
b10101000 >
b10101000 @
b11111111 A
b10011110 U
b10011110 V
#1780000
0!
01
#1785000
1!
11
b10101001 >
b10101001 @
b11111111 A
b10011111 U
b10011111 V
#1790000
0!
01
#1795000
1!
11
b10101010 >
b10101010 @
b11111111 A
b10100000 U
b10100000 V
#1800000
0!
01
#1805000
1!
11
b10101011 >
b10101011 @
b11111111 A
b10100001 U
b10100001 V
#1810000
0!
01
#1815000
1!
11
b10101100 >
b10101100 @
b11111111 A
b10100010 U
b10100010 V
#1820000
0!
01
#1825000
1!
11
b10101101 >
b10101101 @
b11111111 A
b10100011 U
b10100011 V
#1830000
0!
01
#1835000
1!
11
b10101110 >
b10101110 @
b11111111 A
b10100100 U
b10100100 V
#1840000
0!
01
#1845000
1!
11
b10101111 >
b10101111 @
b11111111 A
b10100101 U
b10100101 V
#1850000
0!
01
#1855000
1!
11
b10110000 >
b10110000 @
b11111111 A
b10100110 U
b10100110 V
#1860000
0!
01
#1865000
1!
11
b10110001 >
b10110001 @
b11111111 A
b10100111 U
b10100111 V
#1870000
0!
01
#1875000
1!
11
b10110010 >
b10110010 @
b11111111 A
b10101000 U
b10101000 V
#1880000
0!
01
#1885000
1!
11
b10110011 >
b10110011 @
b11111111 A
b10101001 U
b10101001 V
#1890000
0!
01
#1895000
1!
11
b10110100 >
b10110100 @
b11111111 A
b10101010 U
b10101010 V
#1900000
0!
01
#1905000
1!
11
b10110101 >
b10110101 @
b11111111 A
b10101011 U
b10101011 V
#1910000
0!
01
#1915000
1!
11
b10110110 >
b10110110 @
b11111111 A
b10101100 U
b10101100 V
#1920000
0!
01
#1925000
1!
11
b10110111 >
b10110111 @
b11111111 A
b10101101 U
b10101101 V
#1930000
0!
01
#1935000
1!
11
b10111000 >
b10111000 @
b11111111 A
b10101110 U
b10101110 V
#1940000
0!
01
#1945000
1!
11
b10111001 >
b10111001 @
b11111111 A
b10101111 U
b10101111 V
#1950000
0!
01
#1955000
1!
11
b10111010 >
b10111010 @
b11111111 A
b10110000 U
b10110000 V
#1960000
0!
01
#1965000
1!
11
b10111011 >
b10111011 @
b11111111 A
b10110001 U
b10110001 V
#1970000
0!
01
#1975000
1!
11
b10111100 >
b10111100 @
b11111111 A
b10110010 U
b10110010 V
#1980000
0!
01
#1985000
1!
11
b10111101 >
b10111101 @
b11111111 A
b10110011 U
b10110011 V
#1990000
0!
01
#1995000
1!
11
b10111110 >
b10111110 @
b11111111 A
b10110100 U
b10110100 V
#2000000
0!
01
#2005000
1!
11
b10111111 >
b10111111 @
b11111111 A
b10110101 U
b10110101 V
#2010000
0!
01
#2015000
1!
11
b11000000 >
b11000000 @
b11111111 A
b10110110 U
b10110110 V
#2020000
0!
01
#2025000
1!
11
b11000001 >
b11000001 @
b11111111 A
b10110111 U
b10110111 V
#2030000
0!
01
#2035000
1!
11
b11000010 >
b11000010 @
b11111111 A
b10111000 U
b10111000 V
#2040000
0!
01
#2045000
1!
11
b11000011 >
b11000011 @
b11111111 A
b10111001 U
b10111001 V
#2050000
0!
01
#2055000
1!
11
b11000100 >
b11000100 @
b11111111 A
b10111010 U
b10111010 V
#2060000
0!
01
#2065000
1!
11
b11000101 >
b11000101 @
b11111111 A
b10111011 U
b10111011 V
#2070000
0!
01
#2075000
1!
11
b11000110 >
b11000110 @
b11111111 A
b10111100 U
b10111100 V
#2080000
0!
01
#2085000
1!
11
b11000111 >
b11000111 @
b11111111 A
b10111101 U
b10111101 V
#2090000
0!
01
#2095000
1!
11
b11001000 >
b11001000 @
b11111111 A
b10111110 U
b10111110 V
#2100000
0!
01
#2105000
1!
11
b11001001 >
b11001001 @
b11111111 A
b10111111 U
b10111111 V
#2110000
0!
01
#2115000
1!
11
b11001010 >
b11001010 @
b11111111 A
b11000000 U
b11000000 V
#2120000
0!
01
#2125000
1!
11
b11001011 >
b11001011 @
b11111111 A
b11000001 U
b11000001 V
#2130000
0!
01
#2135000
1!
11
b11001100 >
b11001100 @
b11111111 A
b11000010 U
b11000010 V
#2140000
0!
01
#2145000
1!
11
b11001101 >
b11001101 @
b11111111 A
b11000011 U
b11000011 V
#2150000
0!
01
#2155000
1!
11
b11001110 >
b11001110 @
b11111111 A
b11000100 U
b11000100 V
#2160000
0!
01
#2165000
1!
11
b11001111 >
b11001111 @
b11111111 A
b11000101 U
b11000101 V
#2170000
0!
01
#2175000
1!
11
b11010000 >
b11010000 @
b11111111 A
b11000110 U
b11000110 V
#2180000
0!
01
#2185000
1!
11
b11010001 >
b11010001 @
b11111111 A
b11000111 U
b11000111 V
#2190000
0!
01
#2195000
1!
11
b11010010 >
b11010010 @
b11111111 A
b11001000 U
b11001000 V
#2200000
0!
01
#2205000
1!
11
b11010011 >
b11010011 @
b11111111 A
b11001001 U
b11001001 V
#2210000
0!
01
#2215000
1!
11
b11010100 >
b11010100 @
b11111111 A
b11001010 U
b11001010 V
#2220000
0!
01
#2225000
1!
11
b11010101 >
b11010101 @
b11111111 A
b11001011 U
b11001011 V
#2230000
0!
01
#2235000
1!
11
b11010110 >
b11010110 @
b11111111 A
b11001100 U
b11001100 V
#2240000
0!
01
#2245000
1!
11
b11010111 >
b11010111 @
b11111111 A
b11001101 U
b11001101 V
#2250000
0!
01
#2255000
1!
11
b11011000 >
b11011000 @
b11111111 A
b11001110 U
b11001110 V
#2260000
0!
01
#2265000
1!
11
b11011001 >
b11011001 @
b11111111 A
b11001111 U
b11001111 V
#2270000
0!
01
#2275000
1!
11
b11011010 >
b11011010 @
b11111111 A
b11010000 U
b11010000 V
#2280000
0!
01
#2285000
1!
11
b11011011 >
b11011011 @
b11111111 A
b11010001 U
b11010001 V
#2290000
0!
01
#2295000
1!
11
b11011100 >
b11011100 @
b11111111 A
b11010010 U
b11010010 V
#2300000
0!
01
#2305000
1!
11
b11011101 >
b11011101 @
b11111111 A
b11010011 U
b11010011 V
#2310000
0!
01
#2315000
1!
11
b11011110 >
b11011110 @
b11111111 A
b11010100 U
b11010100 V
#2320000
0!
01
#2325000
1!
11
b11011111 >
b11011111 @
b11111111 A
b11010101 U
b11010101 V
#2330000
0!
01
#2335000
1!
11
b11100000 >
b11100000 @
b11111111 A
b11010110 U
b11010110 V
#2340000
0!
01
#2345000
1!
11
b11100001 >
b11100001 @
b11111111 A
b11010111 U
b11010111 V
#2350000
0!
01
#2355000
1!
11
b11100010 >
b11100010 @
b11111111 A
b11011000 U
b11011000 V
#2360000
0!
01
#2365000
1!
11
b11100011 >
b11100011 @
b11111111 A
b11011001 U
b11011001 V
#2370000
0!
01
#2375000
1!
11
b11100100 >
b11100100 @
b11111111 A
b11011010 U
b11011010 V
#2380000
0!
01
#2385000
1!
11
b11100101 >
b11100101 @
b11111111 A
b11011011 U
b11011011 V
#2390000
0!
01
#2395000
1!
11
b11100110 >
b11100110 @
b11111111 A
b11011100 U
b11011100 V
#2400000
0!
01
#2405000
1!
11
b11100111 >
b11100111 @
b11111111 A
b11011101 U
b11011101 V
#2410000
0!
01
#2415000
1!
11
b11101000 >
b11101000 @
b11111111 A
b11011110 U
b11011110 V
#2420000
0!
01
#2425000
1!
11
b11101001 >
b11101001 @
b11111111 A
b11011111 U
b11011111 V
#2430000
0!
01
#2435000
1!
11
b11101010 >
b11101010 @
b11111111 A
b11100000 U
b11100000 V
#2440000
0!
01
#2445000
1!
11
b11101011 >
b11101011 @
b11111111 A
b11100001 U
b11100001 V
#2450000
0!
01
#2455000
1!
11
b11101100 >
b11101100 @
b11111111 A
b11100010 U
b11100010 V
#2460000
0!
01
#2465000
1!
11
b11101101 >
b11101101 @
b11111111 A
b11100011 U
b11100011 V
#2470000
0!
01
#2475000
1!
11
b11101110 >
b11101110 @
b11111111 A
b11100100 U
b11100100 V
#2480000
0!
01
#2485000
1!
11
b11101111 >
b11101111 @
b11111111 A
b11100101 U
b11100101 V
#2490000
0!
01
#2495000
1!
11
b11110000 >
b11110000 @
b11111111 A
b11100110 U
b11100110 V
#2500000
0!
01
#2505000
1!
11
b11110001 >
b11110001 @
b11111111 A
b11100111 U
b11100111 V
#2510000
0!
01
#2515000
1!
11
b11110010 >
b11110010 @
b11111111 A
b11101000 U
b11101000 V
#2520000
0!
01
#2525000
1!
11
b11110011 >
b11110011 @
b11111111 A
b11101001 U
b11101001 V
#2530000
0!
01
#2535000
1!
11
b11110100 >
b11110100 @
b11111111 A
b11101010 U
b11101010 V
#2540000
0!
01
#2545000
1!
11
b11110101 >
b11110101 @
b11111111 A
b11101011 U
b11101011 V
#2550000
0!
01
#2555000
1!
11
b11110110 >
b11110110 @
b11111111 A
b11101100 U
b11101100 V
