bcd2led7seg/bcd2led7seg.sim/sim_1/behav/xsim/seven_seg_controller_tb.vcd
$date
   Fri Aug 15 15:47:56 2025
$end
$version
  2019.2
$end
$timescale
  1ps
$end
$scope module seven_seg_controller_tb $end
$var reg 1 ! clk $end
$var reg 1 " rst $end
$var reg 1 # rate_sel_2hz $end
$var reg 1 $ btn_brightness_up $end
$var reg 1 % btn_brightness_down $end
$var reg 4 & bcd0 [3:0] $end
$var reg 4 ' bcd1 [3:0] $end
$var reg 4 ( bcd2 [3:0] $end
$var reg 4 ) bcd3 [3:0] $end
$var reg 4 * bcd4 [3:0] $end
$var wire 5 + anode [4:0] $end
$var wire 3 , bcd_sel [2:0] $end
$var wire 4 - bcd_out [3:0] $end
$var wire 2 . brightness_level_internal [1:0] $end
$var wire 8 / brightness_duty_internal [7:0] $end
$var wire 1 0 pwm_out_internal $end
$var integer 32 1 pwm_counter $end
$var reg 3 2 prev_bcd_sel [2:0] $end
$scope module uut $end
$var wire 1 3 clk $end
$var wire 1 4 rst $end
$var wire 1 5 rate_sel_2hz $end
$var wire 1 6 btn_brightness_up $end
$var wire 1 7 btn_brightness_down $end
$var wire 4 8 bcd0 [3:0] $end
$var wire 4 9 bcd1 [3:0] $end
$var wire 4 : bcd2 [3:0] $end
$var wire 4 ; bcd3 [3:0] $end
$var wire 4 < bcd4 [3:0] $end
$var reg 5 = anode [4:0] $end
$var reg 3 > bcd_sel [2:0] $end
$var reg 4 ? bcd_out [3:0] $end
$var reg 24 @ refresh_counter [23:0] $end
$var reg 3 A digit_index [2:0] $end
$var reg 17 B pwm_counter [16:0] $end
$var reg 8 C brightness_duty [7:0] $end
$var reg 2 D brightness_level [1:0] $end
$var wire 1 E pwm_out $end
$var wire 24 F count_max_cur [23:0] $end
$var wire 1 G tick $end
$var wire 3 H next_idx [2:0] $end
$var wire 8 I pwm_compare [7:0] $end
$var reg 5 J anode_select [4:0] $end
$var parameter 0 K CLK_FREQ $end
$var parameter 0 L ACTIVE_DIGITS $end
$var parameter 0 M FAST_HZ $end
$var parameter 0 N SLOW_HZ $end
$var parameter 0 O PWM_BITS $end
$var parameter 0 P PWM_FREQ $end
$var parameter 0 Q PWM_COUNT_MAX $end
$var parameter 0 R BRIGHTNESS_LEVELS $end
$var parameter 0 S COUNT_MAX_FAST $end
$var parameter 0 T COUNT_MAX_SLOW $end
$var parameter 0 U CNTR_BITS $end
$upscope $end
$upscope $end
$enddefinitions $end
#0
$dumpvars
0!
1"
0#
0$
0%
b1 &
b10 '
b11 (
b100 )
b101 *
b11110 +
bx ,
bx -
b11 .
b11111111 /
10
b0 1
b0 2
03
14
05
06
07
b1 8
b10 9
b11 :
b100 ;
b101 <
b11110 =
bx >
bx ?
b0 @
b0 A
b0 B
b11111111 C
b11 D
1E
b10100010110000101 F
0G
b1 H
b0 I
b11110 J
b101111101011110000100000000 K
b101 L
b11110000 M
b10 N
b1000 O
b1111101000 P
b11000011010100000 Q
b100 R
b10100010110000101 S
b100110001001011010000000 T
b11000 U
$end
#5000
1!
b0 ,
b1 -
b1 1
13
b0 >
b1 ?
b0 @
b0 A
b0 B
b11111111 C
b11 D
#10000
0!
03
#15000
1!
b10 1
13
b0 @
b0 A
b0 B
b11111111 C
b11 D
#20000
0!
03
#25000
1!
b11 1
13
b0 @
b0 A
b0 B
b11111111 C
b11 D
#30000
0!
03
#35000
1!
b100 1
13
b0 @
b0 A
b0 B
b11111111 C
b11 D
#40000
0!
03
#45000
1!
b101 1
13
b0 @
b0 A
b0 B
b11111111 C
b11 D
#50000
0!
03
#55000
1!
b110 1
13
b0 @
b0 A
b0 B
b11111111 C
b11 D
#60000
0!
03
#65000
1!
b111 1
13
b0 @
b0 A
b0 B
b11111111 C
b11 D
#70000
0!
03
#75000
1!
b1000 1
13
b0 @
b0 A
b0 B
b11111111 C
b11 D
#80000
0!
03
#85000
1!
b1001 1
13
b0 @
b0 A
b0 B
b11111111 C
b11 D
#90000
0!
03
#95000
1!
b1010 1
13
b0 @
b0 A
b0 B
b11111111 C
b11 D
#100000
0!
0"
03
04
#105000
1!
b1011 1
13
b1 @
b1 B
b11111111 C
#110000
0!
03
#115000
1!
b1100 1
13
b10 @
b10 B
b11111111 C
#120000
0!
03
#125000
1!
b1101 1
13
b11 @
b11 B
b11111111 C
#130000
0!
03
#135000
1!
b1110 1
13
b100 @
b100 B
b11111111 C
#140000
0!
03
#145000
1!
b1111 1
13
b101 @
b101 B
b11111111 C
#150000
0!
03
#155000
1!
b10000 1
13
b110 @
b110 B
b11111111 C
#160000
0!
03
#165000
1!
b10001 1
13
b111 @
b111 B
b11111111 C
#170000
0!
03
#175000
1!
b10010 1
13
b1000 @
b1000 B
b11111111 C
#180000
0!
03
#185000
1!
b10011 1
13
b1001 @
b1001 B
b11111111 C
#190000
0!
03
#195000
1!
b10100 1
13
b1010 @
b1010 B
b11111111 C
#200000
0!
03
#205000
1!
b10101 1
13
b1011 @
b1011 B
b11111111 C
#210000
0!
03
#215000
1!
b10110 1
13
b1100 @
b1100 B
b11111111 C
#220000
0!
03
#225000
1!
b10111 1
13
b1101 @
b1101 B
b11111111 C
#230000
0!
03
#235000
1!
b11000 1
13
b1110 @
b1110 B
b11111111 C
#240000
0!
03
#245000
1!
b11001 1
13
b1111 @
b1111 B
b11111111 C
#250000
0!
03
#255000
1!
b11010 1
13
b10000 @
b10000 B
b11111111 C
#260000
0!
03
#265000
1!
b11011 1
13
b10001 @
b10001 B
b11111111 C
#270000
0!
03
#275000
1!
b11100 1
13
b10010 @
b10010 B
b11111111 C
#280000
0!
03
#285000
1!
b11101 1
13
b10011 @
b10011 B
b11111111 C
#290000
0!
03
#295000
1!
b11110 1
13
b10100 @
b10100 B
b11111111 C
#300000
0!
03
#305000
1!
b11111 1
13
b10101 @
b10101 B
b11111111 C
#310000
0!
03
#315000
1!
b100000 1
13
b10110 @
b10110 B
b11111111 C
#320000
0!
03
#325000
1!
b100001 1
13
b10111 @
b10111 B
b11111111 C
#330000
0!
03
#335000
1!
b100010 1
13
b11000 @
b11000 B
b11111111 C
#340000
0!
03
#345000
1!
b100011 1
13
b11001 @
b11001 B
b11111111 C
#350000
0!
03
#355000
1!
b100100 1
13
b11010 @
b11010 B
b11111111 C
#360000
0!
03
#365000
1!
b100101 1
13
b11011 @
b11011 B
b11111111 C
#370000
0!
03
#375000
1!
b100110 1
13
b11100 @
b11100 B
b11111111 C
#380000
0!
03
#385000
1!
b100111 1
13
b11101 @
b11101 B
b11111111 C
#390000
0!
03
#395000
1!
b101000 1
13
b11110 @
b11110 B
b11111111 C
#400000
0!
03
#405000
1!
b101001 1
13
b11111 @
b11111 B
b11111111 C
#410000
0!
03
#415000
1!
b101010 1
13
b100000 @
b100000 B
b11111111 C
#420000
0!
03
#425000
1!
b101011 1
13
b100001 @
b100001 B
b11111111 C
#430000
0!
03
#435000
1!
b101100 1
13
b100010 @
b100010 B
b11111111 C
#440000
0!
03
#445000
1!
b101101 1
13
b100011 @
b100011 B
b11111111 C
#450000
0!
03
#455000
1!
b101110 1
13
b100100 @
b100100 B
b11111111 C
#460000
0!
03
#465000
1!
b101111 1
13
b100101 @
b100101 B
b11111111 C
#470000
0!
03
#475000
1!
b110000 1
13
b100110 @
b100110 B
b11111111 C
#480000
0!
03
#485000
1!
b110001 1
13
b100111 @
b100111 B
b11111111 C
#490000
0!
03
#495000
1!
b110010 1
13
b101000 @
b101000 B
b11111111 C
#500000
0!
03
#505000
1!
b110011 1
13
b101001 @
b101001 B
b11111111 C
#510000
0!
03
#515000
1!
b110100 1
13
b101010 @
b101010 B
b11111111 C
#520000
0!
03
#525000
1!
b110101 1
13
b101011 @
b101011 B
b11111111 C
#530000
0!
03
#535000
1!
b110110 1
13
b101100 @
b101100 B
b11111111 C
#540000
0!
03
#545000
1!
b110111 1
13
b101101 @
b101101 B
b11111111 C
#550000
0!
03
#555000
1!
b111000 1
13
b101110 @
b101110 B
b11111111 C
#560000
0!
03
#565000
1!
b111001 1
13
b101111 @
b101111 B
b11111111 C
#570000
0!
03
#575000
1!
b111010 1
13
b110000 @
b110000 B
b11111111 C
#580000
0!
03
#585000
1!
b111011 1
13
b110001 @
b110001 B
b11111111 C
#590000
0!
03
#595000
1!
b111100 1
13
b110010 @
b110010 B
b11111111 C
#600000
0!
03
#605000
1!
b111101 1
13
b110011 @
b110011 B
b11111111 C
#610000
0!
03
#615000
1!
b111110 1
13
b110100 @
b110100 B
b11111111 C
#620000
0!
03
#625000
1!
b111111 1
13
b110101 @
b110101 B
b11111111 C
#630000
0!
03
#635000
1!
b1000000 1
13
b110110 @
b110110 B
b11111111 C
#640000
0!
03
#645000
1!
b1000001 1
13
b110111 @
b110111 B
b11111111 C
#650000
0!
03
#655000
1!
b1000010 1
13
b111000 @
b111000 B
b11111111 C
#660000
0!
03
#665000
1!
b1000011 1
13
b111001 @
b111001 B
b11111111 C
#670000
0!
03
#675000
1!
b1000100 1
13
b111010 @
b111010 B
b11111111 C
#680000
0!
03
#685000
1!
b1000101 1
13
b111011 @
b111011 B
b11111111 C
#690000
0!
03
#695000
1!
b1000110 1
13
b111100 @
b111100 B
b11111111 C
#700000
0!
03
#705000
1!
b1000111 1
13
b111101 @
b111101 B
b11111111 C
#710000
0!
03
#715000
1!
b1001000 1
13
b111110 @
b111110 B
b11111111 C
#720000
0!
03
#725000
1!
b1001001 1
13
b111111 @
b111111 B
b11111111 C
#730000
0!
03
#735000
1!
b1001010 1
13
b1000000 @
b1000000 B
b11111111 C
#740000
0!
03
#745000
1!
b1001011 1
13
b1000001 @
b1000001 B
b11111111 C
#750000
0!
03
#755000
1!
b1001100 1
13
b1000010 @
b1000010 B
b11111111 C
#760000
0!
03
#765000
1!
b1001101 1
13
b1000011 @
b1000011 B
b11111111 C
#770000
0!
03
#775000
1!
b1001110 1
13
b1000100 @
b1000100 B
b11111111 C
#780000
0!
03
#785000
1!
b1001111 1
13
b1000101 @
b1000101 B
b11111111 C
#790000
0!
03
#795000
1!
b1010000 1
13
b1000110 @
b1000110 B
b11111111 C
#800000
0!
03
#805000
1!
b1010001 1
13
b1000111 @
b1000111 B
b11111111 C
#810000
0!
03
#815000
1!
b1010010 1
13
b1001000 @
b1001000 B
b11111111 C
#820000
0!
03
#825000
1!
b1010011 1
13
b1001001 @
b1001001 B
b11111111 C
#830000
0!
03
#835000
1!
b1010100 1
13
b1001010 @
b1001010 B
b11111111 C
#840000
0!
03
#845000
1!
b1010101 1
13
b1001011 @
b1001011 B
b11111111 C
#850000
0!
03
#855000
1!
b1010110 1
13
b1001100 @
b1001100 B
b11111111 C
#860000
0!
03
#865000
1!
b1010111 1
13
b1001101 @
b1001101 B
b11111111 C
#870000
0!
03
#875000
1!
b1011000 1
13
b1001110 @
b1001110 B
b11111111 C
#880000
0!
03
#885000
1!
b1011001 1
13
b1001111 @
b1001111 B
b11111111 C
#890000
0!
03
#895000
1!
b1011010 1
13
b1010000 @
b1010000 B
b11111111 C
#900000
0!
03
#905000
1!
b1011011 1
13
b1010001 @
b1010001 B
b11111111 C
#910000
0!
03
#915000
1!
b1011100 1
13
b1010010 @
b1010010 B
b11111111 C
#920000
0!
03
#925000
1!
b1011101 1
13
b1010011 @
b1010011 B
b11111111 C
#930000
0!
03
#935000
1!
b1011110 1
13
b1010100 @
b1010100 B
b11111111 C
#940000
0!
03
#945000
1!
b1011111 1
13
b1010101 @
b1010101 B
b11111111 C
#950000
0!
03
#955000
1!
b1100000 1
13
b1010110 @
b1010110 B
b11111111 C
#960000
0!
03
#965000
1!
b1100001 1
13
b1010111 @
b1010111 B
b11111111 C
#970000
0!
03
#975000
1!
b1100010 1
13
b1011000 @
b1011000 B
b11111111 C
#980000
0!
03
#985000
1!
b1100011 1
13
b1011001 @
b1011001 B
b11111111 C
#990000
0!
03
#995000
1!
b1100100 1
13
b1011010 @
b1011010 B
b11111111 C
