bcd2led7seg/bcd2led7seg.sim/sim_1/behav/xsim/simulate.log
Vivado Simulator 2019.2
Time resolution is 1 ps
[1500000 ns] anode=11111 seg=11111111 anode_off=111
[12500000 ns] anode=11111 seg=11000000 anode_off=111
[13500000 ns] anode=11110 seg=11000000 anode_off=111
[845500000 ns] anode=11111 seg=11000000 anode_off=111
[846500000 ns] anode=11101 seg=11000000 anode_off=111
[1008500000 ns] anode=11111 seg=11000000 anode_off=111
[1012500000 ns] anode=11101 seg=11000000 anode_off=111
[1678500000 ns] anode=11111 seg=11000000 anode_off=111
[1679500000 ns] anode=11011 seg=11000000 anode_off=111
[2008500000 ns] anode=11111 seg=11000000 anode_off=111
[2012500000 ns] anode=11011 seg=11000000 anode_off=111
[2511500000 ns] anode=11111 seg=11000000 anode_off=111
[2512500000 ns] anode=10111 seg=11000000 anode_off=111
[3008500000 ns] anode=11111 seg=11000000 anode_off=111
[3012500000 ns] anode=10111 seg=11000000 anode_off=111
[3344500000 ns] anode=11111 seg=11111001 anode_off=111
[3345500000 ns] anode=01111 seg=11111001 anode_off=111
[4008500000 ns] anode=11111 seg=11111001 anode_off=111
[4012500000 ns] anode=01111 seg=11111001 anode_off=111
[4177500000 ns] anode=11111 seg=10010010 anode_off=111
[4178500000 ns] anode=11110 seg=10010010 anode_off=111
[5008500000 ns] anode=11111 seg=10010010 anode_off=111
[5010500000 ns] anode=11111 seg=10011001 anode_off=111
[5012500000 ns] anode=11101 seg=10011001 anode_off=111
[5843500000 ns] anode=11111 seg=10110000 anode_off=111
[5844500000 ns] anode=11011 seg=10110000 anode_off=111
[6008500000 ns] anode=11111 seg=10110000 anode_off=111
[6012500000 ns] anode=11011 seg=10110000 anode_off=111
[6676500000 ns] anode=11111 seg=10100100 anode_off=111
[6677500000 ns] anode=10111 seg=10100100 anode_off=111
[7008500000 ns] anode=11111 seg=10100100 anode_off=111
[7012500000 ns] anode=10111 seg=10100100 anode_off=111
[7509500000 ns] anode=11111 seg=11111001 anode_off=111
[7510500000 ns] anode=01111 seg=11111001 anode_off=111
[8008500000 ns] anode=11111 seg=11111001 anode_off=111
[8012500000 ns] anode=01111 seg=11111001 anode_off=111
[8342500000 ns] anode=11111 seg=10010010 anode_off=111
[8343500000 ns] anode=11110 seg=10010010 anode_off=111
[9008500000 ns] anode=11111 seg=10010010 anode_off=111
[9012500000 ns] anode=11110 seg=10010010 anode_off=111
[9175500000 ns] anode=11111 seg=10011001 anode_off=111
[9176500000 ns] anode=11101 seg=10011001 anode_off=111
[10008500000 ns] anode=11111 seg=10110000 anode_off=111
[10012500000 ns] anode=11011 seg=10110000 anode_off=111
[10841500000 ns] anode=11111 seg=10100100 anode_off=111
[10842500000 ns] anode=10111 seg=10100100 anode_off=111
[11008500000 ns] anode=11111 seg=10100100 anode_off=111
[11012500000 ns] anode=10111 seg=10100100 anode_off=111
[11674500000 ns] anode=11111 seg=11111001 anode_off=111
[11675500000 ns] anode=01111 seg=11111001 anode_off=111
[12008500000 ns] anode=11111 seg=11111001 anode_off=111
[12012500000 ns] anode=01111 seg=11111001 anode_off=111
[12507500000 ns] anode=11111 seg=10010010 anode_off=111
[12508500000 ns] anode=11110 seg=10010010 anode_off=111
[13008500000 ns] anode=11111 seg=10010010 anode_off=111
[13012500000 ns] anode=11110 seg=10010010 anode_off=111
[13340500000 ns] anode=11111 seg=10011001 anode_off=111
[13341500000 ns] anode=11101 seg=10011001 anode_off=111
[14008500000 ns] anode=11111 seg=10011001 anode_off=111
[14012500000 ns] anode=11101 seg=10011001 anode_off=111
[14173500000 ns] anode=11111 seg=10110000 anode_off=111
[14174500000 ns] anode=11011 seg=10110000 anode_off=111
[15006500000 ns] anode=11111 seg=10100100 anode_off=111
[15007500000 ns] anode=10111 seg=10100100 anode_off=111
[15008500000 ns] anode=11111 seg=10100100 anode_off=111
[15012500000 ns] anode=10111 seg=10100100 anode_off=111
[15839500000 ns] anode=11111 seg=11111001 anode_off=111
[15840500000 ns] anode=01111 seg=11111001 anode_off=111
[16008500000 ns] anode=11111 seg=11111001 anode_off=111
[16012500000 ns] anode=01111 seg=11111001 anode_off=111
[16672500000 ns] anode=11111 seg=10010010 anode_off=111
[16673500000 ns] anode=11110 seg=10010010 anode_off=111
[17008500000 ns] anode=11111 seg=10010010 anode_off=111
[17012500000 ns] anode=11110 seg=10010010 anode_off=111
[17505500000 ns] anode=11111 seg=10011001 anode_off=111
[17506500000 ns] anode=11101 seg=10011001 anode_off=111
[18008500000 ns] anode=11111 seg=10011001 anode_off=111
[18012500000 ns] anode=11101 seg=10011001 anode_off=111
[18338500000 ns] anode=11111 seg=10110000 anode_off=111
[18339500000 ns] anode=11011 seg=10110000 anode_off=111
[18762500000 ns] anode=11111 seg=10110000 anode_off=111
[19012500000 ns] anode=11011 seg=10110000 anode_off=111
[19171500000 ns] anode=11111 seg=10100100 anode_off=111
[19172500000 ns] anode=10111 seg=10100100 anode_off=111
[19762500000 ns] anode=11111 seg=10100100 anode_off=111
[20004500000 ns] anode=11111 seg=11111001 anode_off=111
[20012500000 ns] anode=01111 seg=11111001 anode_off=111
[20762500000 ns] anode=11111 seg=11111001 anode_off=111
[20837500000 ns] anode=11111 seg=10010010 anode_off=111
[21012500000 ns] anode=11110 seg=10010010 anode_off=111
[21670500000 ns] anode=11111 seg=10011001 anode_off=111
[21671500000 ns] anode=11101 seg=10011001 anode_off=111
[21762500000 ns] anode=11111 seg=10011001 anode_off=111
[22012500000 ns] anode=11101 seg=10011001 anode_off=111
[22503500000 ns] anode=11111 seg=10110000 anode_off=111
[22504500000 ns] anode=11011 seg=10110000 anode_off=111
[22762500000 ns] anode=11111 seg=10110000 anode_off=111
[23012500000 ns] anode=11011 seg=10110000 anode_off=111
[23336500000 ns] anode=11111 seg=10100100 anode_off=111
[23337500000 ns] anode=10111 seg=10100100 anode_off=111
[24008500000 ns] anode=11111 seg=10100100 anode_off=111
[24012500000 ns] anode=10111 seg=10100100 anode_off=111
[24169500000 ns] anode=11111 seg=11111001 anode_off=111
[24170500000 ns] anode=01111 seg=11111001 anode_off=111
[25002500000 ns] anode=11111 seg=10010010 anode_off=111
[25003500000 ns] anode=11110 seg=10010010 anode_off=111
[25008500000 ns] anode=11111 seg=10010010 anode_off=111
[25012500000 ns] anode=11110 seg=10010010 anode_off=111
[25835500000 ns] anode=11111 seg=10011001 anode_off=111
[25836500000 ns] anode=11101 seg=10011001 anode_off=111
[26008500000 ns] anode=11111 seg=10011001 anode_off=111
[26012500000 ns] anode=11101 seg=10011001 anode_off=111
[26668500000 ns] anode=11111 seg=10110000 anode_off=111
[26669500000 ns] anode=11011 seg=10110000 anode_off=111
[27008500000 ns] anode=11111 seg=10110000 anode_off=111
[27012500000 ns] anode=11011 seg=10110000 anode_off=111
[27501500000 ns] anode=11111 seg=10100100 anode_off=111
[27502500000 ns] anode=10111 seg=10100100 anode_off=111
[28008500000 ns] anode=11111 seg=10100100 anode_off=111
[28012500000 ns] anode=10111 seg=10100100 anode_off=111
[28334500000 ns] anode=11111 seg=11111001 anode_off=111
[28335500000 ns] anode=01111 seg=11111001 anode_off=111
[29008500000 ns] anode=11111 seg=11111001 anode_off=111
[29012500000 ns] anode=01111 seg=11111001 anode_off=111
[30008500000 ns] anode=11111 seg=11111001 anode_off=111
[30012500000 ns] anode=01111 seg=11111001 anode_off=111
[31008500000 ns] anode=11111 seg=11111001 anode_off=111
[31012500000 ns] anode=01111 seg=11111001 anode_off=111
[32008500000 ns] anode=11111 seg=11111001 anode_off=111
[32012500000 ns] anode=01111 seg=11111001 anode_off=111
[33008500000 ns] anode=11111 seg=11111001 anode_off=111
[33012500000 ns] anode=01111 seg=11111001 anode_off=111
[34008500000 ns] anode=11111 seg=11111001 anode_off=111
[34012500000 ns] anode=01111 seg=11111001 anode_off=111
[35008500000 ns] anode=11111 seg=11111001 anode_off=111
[35012500000 ns] anode=01111 seg=11111001 anode_off=111
[36008500000 ns] anode=11111 seg=11111001 anode_off=111
[36012500000 ns] anode=01111 seg=11111001 anode_off=111
[37008500000 ns] anode=11111 seg=11111001 anode_off=111
[37012500000 ns] anode=01111 seg=11111001 anode_off=111
[38008500000 ns] anode=11111 seg=11111001 anode_off=111
[38012500000 ns] anode=01111 seg=11111001 anode_off=111
[39008500000 ns] anode=11111 seg=11111001 anode_off=111
[39012500000 ns] anode=01111 seg=11111001 anode_off=111
[39015500000 ns] anode=11111 seg=10000010 anode_off=111
[39016500000 ns] anode=11110 seg=10000010 anode_off=111
[39848500000 ns] anode=11111 seg=11111000 anode_off=111
[39849500000 ns] anode=11101 seg=11111000 anode_off=111
[40008500000 ns] anode=11111 seg=11111000 anode_off=111
[40012500000 ns] anode=11101 seg=11111000 anode_off=111
[40681500000 ns] anode=11111 seg=10000000 anode_off=111
[40682500000 ns] anode=11011 seg=10000000 anode_off=111
[41008500000 ns] anode=11111 seg=10000000 anode_off=111
[41012500000 ns] anode=11011 seg=10000000 anode_off=111
[41514500000 ns] anode=11111 seg=10010000 anode_off=111
[41515500000 ns] anode=10111 seg=10010000 anode_off=111
[42008500000 ns] anode=11111 seg=10010000 anode_off=111
[42012500000 ns] anode=10111 seg=10010000 anode_off=111
[42347500000 ns] anode=11111 seg=11000000 anode_off=111
[42348500000 ns] anode=01111 seg=11000000 anode_off=111
[43008500000 ns] anode=11111 seg=11000000 anode_off=111
[43012500000 ns] anode=01111 seg=11000000 anode_off=111
[43180500000 ns] anode=11111 seg=11000000 anode_off=111
[43181500000 ns] anode=11110 seg=11000000 anode_off=111
[44008500000 ns] anode=11111 seg=11000000 anode_off=111
[44012500000 ns] anode=11110 seg=11000000 anode_off=111
[44013500000 ns] anode=11111 seg=11000000 anode_off=111
[44014500000 ns] anode=11101 seg=11000000 anode_off=111
[44846500000 ns] anode=11111 seg=11000000 anode_off=111
[44847500000 ns] anode=11011 seg=11000000 anode_off=111
[45008500000 ns] anode=11111 seg=11000000 anode_off=111
[45012500000 ns] anode=11011 seg=11000000 anode_off=111
[45679500000 ns] anode=11111 seg=10010000 anode_off=111
[45680500000 ns] anode=10111 seg=10010000 anode_off=111
[46008500000 ns] anode=11111 seg=10010000 anode_off=111
[46012500000 ns] anode=10111 seg=10010000 anode_off=111
[46512500000 ns] anode=11111 seg=11000000 anode_off=111
[46513500000 ns] anode=01111 seg=11000000 anode_off=111
[47008500000 ns] anode=11111 seg=11000000 anode_off=111
[47012500000 ns] anode=01111 seg=11000000 anode_off=111
[47345500000 ns] anode=11111 seg=10010000 anode_off=111
[47346500000 ns] anode=11110 seg=10010000 anode_off=111
[48008500000 ns] anode=11111 seg=10010000 anode_off=111
[48012500000 ns] anode=11110 seg=10010000 anode_off=111
[48178500000 ns] anode=11111 seg=10000010 anode_off=111
[48179500000 ns] anode=11101 seg=10000010 anode_off=111
[49008500000 ns] anode=11111 seg=10000010 anode_off=111
[49011500000 ns] anode=11111 seg=11111000 anode_off=111
[49012500000 ns] anode=11011 seg=11111000 anode_off=111
[49844500000 ns] anode=11111 seg=10100100 anode_off=111
[49845500000 ns] anode=10111 seg=10100100 anode_off=111
[50008500000 ns] anode=11111 seg=10100100 anode_off=111
[50012500000 ns] anode=10111 seg=10100100 anode_off=111
[50677500000 ns] anode=11111 seg=10110000 anode_off=111
[50678500000 ns] anode=01111 seg=10110000 anode_off=111
[51008500000 ns] anode=11111 seg=10110000 anode_off=111
[51012500000 ns] anode=01111 seg=10110000 anode_off=111
[51510500000 ns] anode=11111 seg=11111000 anode_off=111
[51511500000 ns] anode=11110 seg=11111000 anode_off=111
[51762500000 ns] anode=11111 seg=11111000 anode_off=111
[52012500000 ns] anode=11110 seg=11111000 anode_off=111
[52343500000 ns] anode=11111 seg=10000010 anode_off=111
[52344500000 ns] anode=11101 seg=10000010 anode_off=111
[52762500000 ns] anode=11111 seg=10000010 anode_off=111
[53012500000 ns] anode=11101 seg=10000010 anode_off=111
[53176500000 ns] anode=11111 seg=11111000 anode_off=111
[53177500000 ns] anode=11011 seg=11111000 anode_off=111
[53762500000 ns] anode=11111 seg=11111000 anode_off=111
[54009500000 ns] anode=11111 seg=10100100 anode_off=111
[54012500000 ns] anode=10111 seg=10100100 anode_off=111
[54762500000 ns] anode=11111 seg=10100100 anode_off=111
[54842500000 ns] anode=11111 seg=10110000 anode_off=111
[55012500000 ns] anode=01111 seg=10110000 anode_off=111
[55675500000 ns] anode=11111 seg=11111000 anode_off=111
[55676500000 ns] anode=11110 seg=11111000 anode_off=111
[55762500000 ns] anode=11111 seg=11111000 anode_off=111
[56011500000 ns] anode=11111 seg=11111111 anode_off=111
[58012500000 ns] anode=11111 seg=11000000 anode_off=111
[58013500000 ns] anode=11110 seg=11000000 anode_off=111
[58845500000 ns] anode=11111 seg=11000000 anode_off=111
[58846500000 ns] anode=11101 seg=11000000 anode_off=111
[59008500000 ns] anode=11111 seg=11000000 anode_off=111
[59012500000 ns] anode=11101 seg=11000000 anode_off=111
[59678500000 ns] anode=11111 seg=11111000 anode_off=111
[59679500000 ns] anode=11011 seg=11111000 anode_off=111
[60008500000 ns] anode=11111 seg=11111000 anode_off=111
[60012500000 ns] anode=11011 seg=11111000 anode_off=111
[60511500000 ns] anode=11111 seg=10100100 anode_off=111
[60512500000 ns] anode=10111 seg=10100100 anode_off=111
[61008500000 ns] anode=11111 seg=10100100 anode_off=111
[61012500000 ns] anode=10111 seg=10100100 anode_off=111
[61344500000 ns] anode=11111 seg=10110000 anode_off=111
[61345500000 ns] anode=01111 seg=10110000 anode_off=111
[62008500000 ns] anode=11111 seg=10110000 anode_off=111
[62012500000 ns] anode=01111 seg=10110000 anode_off=111
[63008500000 ns] anode=11111 seg=10110000 anode_off=111
[63012500000 ns] anode=01111 seg=10110000 anode_off=111
[64008500000 ns] anode=11111 seg=10110000 anode_off=111
[64012500000 ns] anode=01111 seg=10110000 anode_off=111
[65008500000 ns] anode=11111 seg=10110000 anode_off=111
[65012500000 ns] anode=01111 seg=10110000 anode_off=111
[66008500000 ns] anode=11111 seg=10110000 anode_off=111
[66012500000 ns] anode=01111 seg=10110000 anode_off=111
[67008500000 ns] anode=11111 seg=10110000 anode_off=111
[67012500000 ns] anode=01111 seg=10110000 anode_off=111
[68008500000 ns] anode=11111 seg=10110000 anode_off=111
[68012500000 ns] anode=01111 seg=10110000 anode_off=111
[69008500000 ns] anode=11111 seg=10110000 anode_off=111
[69012500000 ns] anode=01111 seg=10110000 anode_off=111
[70008500000 ns] anode=11111 seg=10110000 anode_off=111
[70012500000 ns] anode=01111 seg=10110000 anode_off=111
[71008500000 ns] anode=11111 seg=10110000 anode_off=111
[71012500000 ns] anode=01111 seg=10110000 anode_off=111
[72008500000 ns] anode=11111 seg=10110000 anode_off=111
[72012500000 ns] anode=01111 seg=10110000 anode_off=111
[73008500000 ns] anode=11111 seg=10110000 anode_off=111
[73012500000 ns] anode=01111 seg=10110000 anode_off=111
[74008500000 ns] anode=11111 seg=10110000 anode_off=111
[74012500000 ns] anode=01111 seg=10110000 anode_off=111
[74015500000 ns] anode=11111 seg=11111001 anode_off=111
[74016500000 ns] anode=11110 seg=11111001 anode_off=111
[74848500000 ns] anode=11111 seg=10100100 anode_off=111
[74849500000 ns] anode=11101 seg=10100100 anode_off=111
[75008500000 ns] anode=11111 seg=10100100 anode_off=111
[75012500000 ns] anode=11101 seg=10100100 anode_off=111
[75681500000 ns] anode=11111 seg=11111001 anode_off=111
[75682500000 ns] anode=11011 seg=11111001 anode_off=111
[76008500000 ns] anode=11111 seg=11111001 anode_off=111
[76012500000 ns] anode=11011 seg=11111001 anode_off=111
[76514500000 ns] anode=11111 seg=11111001 anode_off=111
[76515500000 ns] anode=10111 seg=11111001 anode_off=111
[77008500000 ns] anode=11111 seg=11111001 anode_off=111
[77012500000 ns] anode=10111 seg=11111001 anode_off=111
[77347500000 ns] anode=11111 seg=11000000 anode_off=111
[77348500000 ns] anode=01111 seg=11000000 anode_off=111
[78008500000 ns] anode=11111 seg=11000000 anode_off=111
[78012500000 ns] anode=01111 seg=11000000 anode_off=111
[79008500000 ns] anode=11111 seg=11000000 anode_off=111
[79012500000 ns] anode=01111 seg=11000000 anode_off=111
[80008500000 ns] anode=11111 seg=11000000 anode_off=111
[80012500000 ns] anode=01111 seg=11000000 anode_off=111
[81008500000 ns] anode=11111 seg=11000000 anode_off=111
[81012500000 ns] anode=01111 seg=11000000 anode_off=111
[82008500000 ns] anode=11111 seg=11000000 anode_off=111
[82012500000 ns] anode=01111 seg=11000000 anode_off=111
[83008500000 ns] anode=11111 seg=11000000 anode_off=111
[83012500000 ns] anode=01111 seg=11000000 anode_off=111
[84008500000 ns] anode=11111 seg=11000000 anode_off=111
[84012500000 ns] anode=01111 seg=11000000 anode_off=111
[85008500000 ns] anode=11111 seg=11000000 anode_off=111
TB finished.
$finish called at time : 85010332 ns : File "C:/Users/datda/Downloads/jit_intern/bcd2led7seg/bcd2led7seg.srcs/sim_1/new/bcd2led7seg_top_tb.v" Line 127
